<?xml version="1.0" encoding="utf-8"?>
<!-- Generator: Adobe Illustrator 20.1.0, SVG Export Plug-In . SVG Version: 6.00 Build 0)  -->
<svg version="1.1" id="Layer_1" xmlns="http://www.w3.org/2000/svg" xmlns:xlink="http://www.w3.org/1999/xlink" x="0px" y="0px"
	 viewBox="0 0 2430.9 313.7" style="enable-background:new 0 0 2430.9 313.7;" xml:space="preserve">
<style type="text/css">
	.st0{fill:#FFFFFF;}
	.st1{fill:#2A8DC2;}
</style>
<g>
	<polygon class="st0" points="1506.3,-0.2 1459.1,68.3 1506.7,68.3 1506.7,310.9 1575.2,310.9 1575.2,68.3 1575.2,0.2 1575.2,-0.2 	
		"/>
	<path class="st0" d="M1855.9,313.7c-87.3,0-158.3-71-158.3-158.3s71-158.3,158.3-158.3s158.3,71,158.3,158.3
		S1943.2,313.7,1855.9,313.7z M1855.9,67.1c-48.7,0-88.3,39.6-88.3,88.3c0,48.7,39.6,88.3,88.3,88.3s88.3-39.6,88.3-88.3
		S1904.6,67.1,1855.9,67.1z"/>
	<path class="st0" d="M2272.6,313.7c-87.3,0-158.3-71-158.3-158.3s71-158.3,158.3-158.3c87.3,0,158.3,71,158.3,158.3
		S2359.9,313.7,2272.6,313.7z M2272.6,67.1c-48.7,0-88.3,39.6-88.3,88.3c0,48.7,39.6,88.3,88.3,88.3c48.7,0,88.3-39.6,88.3-88.3
		S2321.3,67.1,2272.6,67.1z"/>
	<polygon class="st1" points="255.8,0 0,0 0,68.5 93.6,68.5 93.6,310.7 162.1,310.7 162.1,68.5 255.8,68.5 	"/>
	<polygon class="st1" points="1099.5,0 1099.5,68.5 1193.1,68.5 1193.1,310.8 1261.6,310.8 1261.6,68.5 1331.5,68.5 1378.7,0.1 
		1378.7,0 	"/>
	<polygon class="st1" points="604.6,68.6 604.6,0.1 383,0.1 383,310.8 604.6,310.8 604.6,242.3 451.5,242.3 451.5,183 565.5,183 
		565.5,121.5 451.5,121.5 451.5,68.6 	"/>
	<polygon class="st1" points="993.8,0.1 913.2,0.1 852.4,93.3 791.5,0.1 710.9,0.1 817.3,155.7 711.6,310.4 792.2,310.4 
		852.4,218.1 912.6,310.4 993.1,310.4 887.4,155.7 	"/>
</g>
</svg>
